/* All comments please go to the bottom */
030480000
060090452
010002000
103709605
025000870
604208309
000600090
756010040
000074030

/*
This is the game copied from the book i bought, Game 107
*/