/* All comments please go to the bottom */
400030002
050000010
000109000
001000900
204000803
005000701
000507000
040000060
300060004

/*
This is the game copied from mx, Fri 5 Mar, 2010. Expert Level
*/